INDEX VERSION 1.126+/home/raen/Dipendra/Copied Projects/NewAttendence/.metadata/.plugins/org.eclipse.jdt.core
1393721363.index
2686503099.index
516116778.index
4274844824.index
3740762094.index
925624498.index
1796948596.index
1193566714.index
3223902160.index
614368762.index
2040264796.index
2889915287.index
1654635368.index
1189062746.index
